[
  {
    "code": "Code 01 : Retard absence non rémunéré",
    "reasons": [
      {
        "id": "lateness",
        "text": "Retard"
      }
    ]
  },
  {
    "code": "Code 04 : Grève Afpa",
    "reasons": [
      {
        "id": "strike",
        "text": "Grève Afpa"
      }
    ]
  },
  {
    "code": "Code 05 : Maladie",
    "reasons": [
      {
        "id": "illness",
        "text": "Maladie"
      }
    ]
  },
  {
    "code": "Code 06 : Absence Légale",
    "reasons": [
      {
        "id": "birth",
        "text": "Naissance ou adoption (3 jours)"
      },
      {
        "id": "marriage",
        "text": "Mariage (4 jours)"
      },
      {
        "id": "child-marriage",
        "text": "Mariage d’un enfant (1 jour)"
      },
      {
        "id": "partner-death",
        "text": "Décès du conjoint ou du partenaire lié par un pacte civil de solidarité ou d’un enfant (2 jours)"
      },
      {
        "id": "family-memeber-death",
        "text": "Décès du père, de la mère, du beau-père, de la belle-mère, d'un frère ou d'une soeur (1 jour)"
      },
      {
        "id": "pregnancy",
        "text": "Visite médicale obligatoire de la grossesse"
      },
      {
        "id": "voting",
        "text": "Stagiaire élu membre du CA d’une caisse de sécurité sociale sociale"
      }
    ]
  },
  {
    "code": "Code 20 – 21 – 30 – 31 - 40 - 41 : Accident",
    "reasons": [
      {
        "id": "work-accident",
        "text": "Accident travail sans arrêt"
      },
      {
        "id": "work-accident-disability",
        "text": "Accident travail avec arrêt"
      },
      {
        "id": "travel-accident",
        "text": "Accident trajet sans arrêt"
      },
      {
        "id": "travel-accident-disability",
        "text": "Accident trajet avec arrêt"
      },
      {
        "id": "other-accident",
        "text": "Accident travail hors Afpa sans arrêt"
      },
      {
        "id": "other-accident-disability",
        "text": "Accident travail hors Afpa avec arrêt"
      }
    ]
  },
  {
    "code": "Code 98 : Absence autorisée non rémunérée",
    "reasons": [
      {
        "id": "job-search",
        "text": "Recherche PE"
      },
      {
        "id": "job-search",
        "text": "Recherche d’un emploi"
      },
      {
        "id": "trade show",
        "text": "Visite d’un salon"
      },
      {
        "id": "company-visit",
        "text": "Enquête en entreprise"
      },
      {
        "id": "other-visit",
        "text": "Visite d’un autre centre"
      },
      {
        "id": "psy-visit",
        "text": "RDV psychologue du travail"
      },
      {
        "id": "job-center-appointment",
        "text": "Rendez-vous POLE EMPLOI"
      },
      {
        "id": "religion",
        "text": "Absence pour fêtes religieuses hors jours fériés légaux"
      },
      {
        "id": "transport-strike",
        "text": "Grève des transports"
      },
      {
        "id": "bad-weather",
        "text": "Intempéries"
      },
      {
        "id": "military-visit",
        "text": "Rdv avec le conseiller militaire"
      },
      {
        "id": "court",
        "text": "Rdv avec le juge, Convocation au tribunal ou commissariat"
      },
      {
        "id": "accommodation-search",
        "text": "Recherche de logement, Rdv organismes divers"
      }
    ]
  }
]
